{
  "project_info": {
    "project_number": "736988489415",
    "firebase_url": "https://eslava-dev-music.firebaseio.com",
    "project_id": "eslava-dev-music",
    "storage_bucket": "eslava-dev-music.appspot.com"
  },
  "client": [
    {
      "client_info": {
        "mobilesdk_app_id": "1:736988489415:android:4263155335cdec2b",
        "android_client_info": {
          "package_name": "com.platzi_music"
        }
      },
      "oauth_client": [
        {
          "client_id": "736988489415-acjq7kvmf2d1i6j9a3epm7enuqq95pan.apps.googleusercontent.com",
          "client_type": 3
        }
      ],
      "api_key": [
        {
          "current_key": "AIzaSyBP1Pz0xv3rwvVj1gvsjt_AapFb2uq0VJ8"
        }
      ],
      "services": {
        "analytics_service": {
          "status": 1
        },
        "appinvite_service": {
          "status": 1,
          "other_platform_oauth_client": []
        },
        "ads_service": {
          "status": 2
        }
      }
    }
  ],
  "configuration_version": "1"
}